<?xml version="1.0" encoding="UTF-8"?>
<svg viewBox="0 0 128 128" version="1.1" xmlns="http://www.w3.org/2000/svg" xmlns:xlink="http://www.w3.org/1999/xlink">
    <!-- Generator: Sketch 52.3 (67297) - http://www.bohemiancoding.com/sketch -->
    <title>icon-datadog-128</title>
    <desc>Created with Sketch.</desc>
    <defs>
        <polygon id="path-1" points="0.00824034335 0.0347467811 95.9285837 0.0347467811 95.9285837 95.1759657 0.00824034335 95.1759657"></polygon>
    </defs>
    <g id="icon-datadog-128" stroke="none" stroke-width="1" fill="none" fill-rule="evenodd">
        <rect id="Rectangle" fill="#FFFFFF" fill-rule="nonzero" x="0" y="0" width="128" height="128" rx="16"></rect>
        <g id="dd_v_logo" transform="translate(16.000000, 16.000000)">
            <path d="M20.9170129,70.0817854 L26.1548498,69.1893562 C28.711691,72.0098884 27.7103519,73.1220601 29.904206,74.7252189 C33.5539914,77.3949528 38.1249099,76.2006524 39.680412,74.0276738 C41.520618,71.4539399 41.3945408,69.0057339 40.8212876,66.6877253 L46.7642232,65.6749871 L47.4904721,71.7575966 L81.3137854,65.6407897 L79.3016309,41.1904549 L78.1472961,41.400721 L74.5435193,2.16734764 L13.472,8.56130472 L20.9170129,70.0817854" id="Fill-1" fill="#FFFFFE"></path>
            <g id="Group-5">
                <mask id="mask-2" fill="white">
                    <use xlink:href="#path-1"></use>
                </mask>
                <g id="Clip-3"></g>
                <path d="M47.8897167,23.7416652 C48.4133906,23.2429871 45.2813734,22.5874678 42.8506094,24.2499571 C41.0581974,25.4768069 41.000927,28.1063004 42.7168412,29.5968412 C42.888927,29.7439313 43.0302489,29.8489957 43.1620944,29.93497 C43.6628326,29.6980601 44.2341631,29.4592275 44.8916052,29.2451159 C46.0018541,28.8840515 46.9247725,28.696721 47.6834335,28.5974249 C48.0464206,28.1903519 48.4687382,27.4738541 48.3636738,26.1762747 C48.2202918,24.4162747 46.8903004,24.6953476 47.8897167,23.7416652 Z M64.3315365,33.2982661 C64.0352961,33.1338712 62.647897,33.19897 61.6733391,33.3154335 C59.8158283,33.535176 57.8112275,34.1810815 57.3720172,34.5251159 C56.5731159,35.1442403 56.9358283,36.2238627 57.5263863,36.6671931 C59.1811845,37.9075021 60.6317597,38.7386781 62.1625408,38.536103 C63.1027639,38.4119485 63.9320172,36.919485 64.5185923,35.5646352 C64.9201717,34.632103 64.9201717,33.625133 64.3315365,33.2982661 Z M57.9889442,22.2798283 C57.8822318,22.5244292 57.7138541,22.6849785 57.9660086,23.4818197 L57.9813906,23.527691 L58.0214936,23.63097 L58.1265579,23.8698026 C58.5814249,24.8023348 59.0802403,25.6813047 59.9151245,26.1304034 C60.1311588,26.0941459 60.3547468,26.0691502 60.5860258,26.0577511 C61.3696824,26.023279 61.8643777,26.1475708 62.1777854,26.3177339 C62.2062146,26.1608927 62.2121202,25.9316738 62.1949528,25.5934077 C62.1339742,24.4124292 62.4281545,22.4039828 60.1656309,21.3472961 C59.311382,20.9498369 58.1132361,21.072206 57.7138541,21.5689614 C57.7866438,21.5785751 57.8513305,21.5938197 57.90297,21.6111245 C58.5068498,21.8212532 58.0977167,22.0294592 57.9889442,22.2798283 Z M81.2927725,38.4653734 L79.3436567,38.8381116 L75.5999313,0.0347467811 L11.8019571,7.45490129 L19.6615966,71.4327897 L27.1294077,70.3452017 C26.5332189,69.4913648 25.6045322,68.4574764 24.0184034,67.1353133 C21.8190558,65.3023863 22.5966695,62.1895966 23.8942489,60.2234506 C25.6103004,56.9020429 34.4541116,52.6807897 33.9533734,47.3722232 C33.7737339,45.4421974 33.4680172,42.9293047 31.6812361,41.2076223 C31.6143519,41.9223348 31.7347983,42.6102661 31.7347983,42.6102661 C31.7347983,42.6102661 31.0009957,41.6719657 30.6359485,40.391691 C30.2729614,39.9005665 29.9882575,39.7438627 29.6021974,39.0883433 C29.3271073,39.8470043 29.3633648,40.7261116 29.3633648,40.7261116 C29.3633648,40.7261116 28.7633305,39.3043777 28.6658197,38.104309 C28.3103863,38.6413047 28.2205665,39.6617339 28.2205665,39.6617339 C28.2205665,39.6617339 27.4408927,37.4200858 27.6186094,36.2124635 C27.263176,35.1614077 26.208412,33.0766009 26.5064378,28.3375794 C28.4537682,29.7057511 32.7399828,29.3808069 34.4100258,26.912 C34.9641888,26.0941459 35.344618,23.8621116 34.1330129,19.4631416 C33.3552618,16.6426094 31.4290815,12.4423691 30.6781116,10.8486867 L30.5882918,10.9136481 C30.9838283,12.1977682 31.7997597,14.8883777 32.1131674,16.1935107 C33.0609442,20.151073 33.3151588,21.5288584 32.8699056,23.3538197 C32.4915365,24.9398112 31.5838627,25.9774077 29.2830215,27.1373734 C26.9823176,28.3011845 23.9285837,25.4692532 23.7356223,25.3125494 C21.4998798,23.5257682 19.7705064,20.6115708 19.5774077,19.1956052 C19.3767554,17.6458712 20.4679142,16.7152618 21.0183691,15.448309 C20.2310043,15.6738197 19.3538197,16.0749871 19.3538197,16.0749871 C19.3538197,16.0749871 20.40103,14.9876738 21.6928412,14.047588 C22.2279142,13.6921545 22.5413219,13.4666438 23.1049614,12.9965322 C22.28903,12.9832103 21.6259571,13.0061459 21.6259571,13.0061459 C21.6259571,13.0061459 22.9865751,12.2684979 24.3967725,11.7315021 C23.3649442,11.6856309 22.376927,11.7239485 22.376927,11.7239485 C22.376927,11.7239485 25.4134936,10.3614077 27.8115708,9.36199142 C29.4607382,8.68367382 31.0717253,8.88418884 31.9774764,10.1970129 C33.1660086,11.9169099 34.4138712,12.8513648 37.0586094,13.4303863 C38.6829185,12.7079828 39.1759657,12.3373047 41.216824,11.7792961 C43.0130815,9.7976309 44.4234163,9.5416309 44.4234163,9.5416309 C44.4234163,9.5416309 43.7239485,10.1856137 43.536618,11.1964292 C44.5551245,10.3920343 45.6711416,9.71934764 45.6711416,9.71934764 C45.6711416,9.71934764 45.2393476,10.2544206 44.8361202,11.1046867 L44.9297854,11.2442232 C46.1183176,10.5295107 47.5151931,9.96573391 47.5151931,9.96573391 C47.5151931,9.96573391 47.1159485,10.4722403 46.6476223,11.1276223 C47.543897,11.1200687 49.3611674,11.1659399 50.0664034,11.2461459 C54.2299742,11.3378884 55.0939742,6.78606009 56.6915021,6.21459227 C58.6922575,5.49809442 59.5864721,5.06437768 62.9957768,8.42369099 C65.9212361,11.3073991 68.2068326,16.4687382 67.071588,17.6248584 C66.120103,18.5840343 64.2435021,17.2503348 62.1625408,14.6495451 C61.063691,13.2717597 60.2322403,11.6436052 59.8426094,9.57404292 C59.5139571,7.82750215 58.2354678,6.81476395 58.2354678,6.81476395 C58.2354678,6.81476395 58.9769614,8.47340773 58.9769614,9.93524464 C58.9769614,10.7340086 59.0765322,13.7189356 60.352824,15.3947468 C60.2267468,15.6393476 60.1675536,16.6063519 60.0280172,16.7916223 C58.5432446,14.9915193 55.3538197,13.7035536 54.8339914,13.3233991 C56.5939914,14.7699914 60.6394506,18.0930472 62.1931674,21.2784893 C63.6628326,24.2901974 62.7967725,27.0513991 63.5401888,27.7661116 C63.752103,27.9706094 66.7009099,31.6567897 67.2685322,33.5083948 C68.2581974,36.736 67.3277253,40.128 66.032206,42.231897 L62.4145579,42.7974592 C61.8855279,42.6503691 61.528309,42.575794 61.0542146,42.3007039 C61.3157082,41.8363605 61.8356738,40.6783176 61.8413047,40.4393476 L61.6369442,40.080206 C60.5114506,41.6796567 58.6250987,43.2332361 57.0584721,44.1256652 C55.008,45.2912618 52.6441202,45.1116223 51.1057854,44.6339571 C46.7393648,43.2828155 42.6098541,40.3228841 41.6142833,39.545133 C41.6142833,39.545133 41.5836567,40.1661803 41.7709871,40.3057167 C42.8716223,41.5515193 45.3941288,43.8045665 47.8324464,45.3753133 L42.6347124,45.9487039 L45.0922575,65.1400515 C44.0028841,65.296618 43.8328584,65.3732532 42.6404807,65.543279 C41.5894249,61.8189185 39.5791931,59.3862318 37.3816309,57.9702661 C35.4439142,56.7207554 32.7704721,56.4396223 30.2117082,56.9479142 L30.0474506,57.1389528 C31.8265408,56.9534077 33.9265923,57.2116052 36.0840515,58.5818369 C38.2014077,59.9251502 39.9078455,63.3935107 40.5365837,65.4821631 C41.3409785,68.1517597 41.8970644,71.0066266 39.7320515,74.0335794 C38.191794,76.1852704 33.6954506,77.3740773 30.0626953,74.8017167 C31.0334077,76.3668326 32.344309,77.6471073 34.1100773,77.8878627 C36.7318798,78.2450815 39.2199142,77.7887039 40.9321202,76.024721 C42.3939571,74.5167382 43.1697854,71.3637082 42.9652876,68.0429871 L45.2794506,67.7063691 L46.1144721,73.6666094 L84.4170987,69.0400687 L81.2927725,38.4653734 Z M44.6163777,47.2766352 L49.4354678,46.6117768 C50.2151416,46.9633648 50.7579056,47.097133 51.6924979,47.3359657 C53.1485665,47.7162575 54.8339914,48.0811674 57.3298541,46.8199828 C57.9106609,46.5314335 59.1203433,45.4211845 59.6094077,44.7887382 L79.3532704,41.1962232 L81.3673476,65.648206 L47.5419742,71.7630901 L44.6163777,47.2766352 Z M72.6266781,55.3921373 L66.160206,51.1138884 L60.7655279,60.1524464 L54.4921545,58.312515 L48.9675536,66.7701288 L49.2504721,69.4320343 L79.2863863,63.8806524 L77.5414936,45.0562747 L72.6266781,55.3921373 Z" id="Fill-2" fill="#6C4488" mask="url(#mask-2)"></path>
                <path d="M93.2705236,89.2789013 L93.2705236,92.6307983 C92.65703,92.7913476 92.1067124,92.8696309 91.6253391,92.8696309 C88.3728755,92.8696309 86.7485665,91.1516567 86.7485665,87.7139227 C86.7485665,84.5398798 88.472309,82.9536137 91.9156738,82.9536137 C93.3543004,82.9536137 94.6921202,83.2212876 95.9285837,83.7564979 L95.9285837,81.352515 C94.6921202,80.8859742 93.287691,80.6511245 91.7148841,80.6511245 C86.5650815,80.6511245 83.9872275,83.0033305 83.9872275,87.7139227 C83.9872275,92.6860086 86.5192103,95.1759657 91.583176,95.1759657 C93.3258712,95.1759657 94.7723262,94.9217511 95.9285837,94.4135966 L95.9285837,86.9225751 L91.6345408,86.9225751 L90.736618,89.2789013 L93.2705236,89.2789013 Z M75.0823004,92.8674335 C77.9713648,92.8674335 79.416309,91.2030215 79.416309,87.8725494 C79.416309,84.5931674 77.9713648,82.9518283 75.0823004,82.9518283 C72.1186609,82.9518283 70.6375966,84.5931674 70.6375966,87.8725494 C70.6375966,91.2030215 72.1186609,92.8674335 75.0823004,92.8674335 Z M67.8759828,87.9338026 C67.8759828,83.0780429 70.2799657,80.6511245 75.0823004,80.6511245 C79.8118455,80.6511245 82.1754506,83.0780429 82.1754506,87.9338026 C82.1754506,92.760721 79.8118455,95.1759657 75.0823004,95.1759657 C70.4921545,95.1759657 68.0921545,92.760721 67.8759828,87.9338026 Z M55.7893219,92.7681373 L58.9501803,92.7681373 C61.9256309,92.7681373 63.4160343,91.0196738 63.4160343,87.5209614 C63.4160343,84.5418026 61.9256309,83.0530472 58.9501803,83.0530472 L55.7893219,83.0530472 L55.7893219,92.7681373 Z M59.351485,95.0726867 L53.1312618,95.0726867 L53.1312618,80.7542661 L59.351485,80.7542661 C63.8346438,80.7542661 66.0758798,83.0111588 66.0758798,87.5227468 C66.0758798,92.5543004 63.8346438,95.0726867 59.351485,95.0726867 Z M38.9236738,95.0726867 L36.1929614,95.0726867 L42.2850472,80.7542661 L45.1437597,80.7542661 L51.3657682,95.0726867 L48.505133,95.0726867 L46.6992618,91.1670386 L42.103485,91.1670386 L43.0150043,88.8660601 L45.9960858,88.8660601 L43.647588,83.4867639 L38.9236738,95.0726867 Z M26.6689099,80.7542661 L37.5574249,80.7542661 L37.5574249,83.0568927 L33.4431588,83.0568927 L33.4431588,95.0726867 L30.7850987,95.0726867 L30.7850987,83.0568927 L26.6689099,83.0568927 L26.6689099,80.7542661 Z M15.7308155,95.0726867 L13.000103,95.0726867 L19.0901288,80.7542661 L21.9488412,80.7542661 L28.1727725,95.0726867 L25.3121373,95.0726867 L23.5062661,91.1670386 L18.9104893,91.1670386 L19.8239313,88.8660601 L22.8050129,88.8660601 L20.456515,83.4867639 L15.7308155,95.0726867 Z M2.65998283,92.7681373 L5.81878112,92.7681373 C8.79601717,92.7681373 10.2827124,91.0196738 10.2827124,87.5209614 C10.2827124,84.5418026 8.79601717,83.0530472 5.81878112,83.0530472 L2.65998283,83.0530472 L2.65998283,92.7681373 Z M6.22008584,95.0726867 L0,95.0726867 L0,80.7542661 L6.22008584,80.7542661 C10.7011845,80.7542661 12.944618,83.0111588 12.944618,87.5227468 C12.944618,92.5543004 10.7011845,95.0726867 6.22008584,95.0726867 Z" id="Fill-4" fill="#6C4488" mask="url(#mask-2)"></path>
            </g>
        </g>
    </g>
</svg>
